subNum	trialNum	fileNum	chasing_subtlety	num_item	frames	selected_wolf	selected_sheep	wolf_acc	sheep_acc	chasing_acc
----------------------------------------------------------
1	0	37	60.000000	4	479	2	0	0	0	0
1	1	71	30.000000	6	479	3	2	0	0	0
1	2	39	120.000000	4	479	0	1	1	1	1
1	3	106	30.000000	9	479	0	7	1	0	0
1	4	105	5.000000	9	479	2	0	0	0	0
1	5	93	60.000000	4	479	2	3	0	0	0
1	6	0	5.000000	3	479	0	1	1	1	1
1	7	67	120.000000	4	479	0	3	1	0	0
1	8	102	120.000000	6	479	4	3	0	0	0
1	9	216	180.000000	6	479	5	4	0	0	0
1	10	11	120.000000	4	479	2	3	0	0	0
1	11	33	150.000000	3	479	0	1	1	1	1
1	12	160	180.000000	6	479	5	4	0	0	0
1	13	4	120.000000	3	479	0	1	1	1	1
1	14	28	5.000000	3	252	0	1	1	1	1
1	15	6	180.000000	3	479	2	1	0	1	0
1	16	31	90.000000	3	479	0	1	1	1	1
1	17	86	60.000000	3	479	0	1	1	1	1
1	18	63	5.000000	4	479	0	1	1	1	1
1	19	199	90.000000	3	398	2	0	0	0	0
1	20	68	150.000000	4	479	2	0	0	0	0
1	21	94	90.000000	4	449	0	1	1	1	1
1	22	24	90.000000	9	479	2	5	0	0	0
1	23	180	150.000000	4	479	3	2	0	0	0
1	24	116	120.000000	3	405	0	1	1	1	1
1	25	7	5.000000	4	479	0	1	1	1	1
1	26	21	5.000000	9	479	0	1	1	1	1
1	27	29	30.000000	3	211	0	1	1	1	1
1	28	141	30.000000	3	145	0	1	1	1	1
1	29	145	150.000000	3	380	0	1	1	1	1
1	30	75	150.000000	6	379	4	3	0	0	0
1	31	218	30.000000	9	382	0	1	1	1	1
1	32	76	180.000000	6	455	0	3	1	0	0
1	33	88	120.000000	3	479	0	2	1	0	0
1	34	62	180.000000	3	105	0	2	1	0	0
1	35	111	180.000000	9	479	8	4	0	0	0
1	36	196	5.000000	3	196	0	1	1	1	1
1	37	191	60.000000	9	479	1	8	0	0	0
1	38	13	180.000000	4	479	2	1	0	1	0
1	39	18	120.000000	6	479	5	1	0	1	0
1	40	182	5.000000	6	311	0	1	1	1	1
1	41	165	120.000000	9	479	8	4	0	0	0
1	42	23	60.000000	9	479	3	2	0	0	0
1	43	10	90.000000	4	433	0	1	1	1	1
1	44	107	60.000000	9	479	5	0	0	0	0
1	45	59	90.000000	3	479	1	2	0	0	0
1	46	53	120.000000	9	479	4	8	0	0	0
1	47	78	30.000000	9	304	0	1	1	1	1
1	48	131	150.000000	6	464	2	3	0	0	0
1	49	212	60.000000	6	470	1	5	0	0	0
1	50	61	150.000000	3	479	0	2	1	0	0
1	51	27	180.000000	9	479	4	8	0	0	0
1	52	207	120.000000	4	479	3	0	0	0	0
1	53	215	150.000000	6	479	3	2	0	0	0
1	54	60	120.000000	3	479	2	0	0	0	0
1	55	179	120.000000	4	352	0	1	1	1	1
1	56	115	90.000000	3	376	0	1	1	1	1
1	57	209	180.000000	4	463	2	1	0	1	0
1	58	174	180.000000	3	479	0	2	1	0	0
1	59	113	30.000000	3	479	0	1	1	1	1
1	60	9	60.000000	4	479	0	1	1	1	1
1	61	112	5.000000	3	99	0	1	1	1	1
1	62	200	120.000000	3	479	0	2	1	0	0
1	63	35	5.000000	4	144	0	1	1	1	1
1	64	97	180.000000	4	476	2	3	0	0	0
1	65	172	120.000000	3	233	0	1	1	1	1
1	66	176	30.000000	4	152	0	1	1	1	1
1	67	16	60.000000	6	479	5	0	0	0	0
1	68	146	180.000000	3	479	2	1	0	1	0
1	69	152	150.000000	4	479	1	3	0	0	0
1	70	143	90.000000	3	118	0	1	1	1	1
1	71	157	90.000000	6	457	0	2	1	0	0
1	72	87	90.000000	3	265	0	1	1	1	1
1	73	162	30.000000	9	447	0	1	1	1	1
1	74	201	150.000000	3	479	0	1	1	1	1
1	75	79	60.000000	9	479	6	2	0	0	0
1	76	151	120.000000	4	479	2	3	0	0	0
1	77	12	150.000000	4	437	3	0	0	0	0
1	78	54	150.000000	9	479	4	3	0	0	0
1	79	44	60.000000	6	479	1	0	0	0	0
1	80	159	150.000000	6	479	4	3	0	0	0
1	81	135	60.000000	9	479	3	6	0	0	0
1	82	197	30.000000	3	104	0	1	1	1	1
1	83	222	150.000000	9	479	1	2	0	0	0
1	84	188	180.000000	6	479	1	2	0	0	0
1	85	136	90.000000	9	479	7	8	0	0	0
1	86	168	5.000000	3	162	0	1	1	1	1
1	87	46	120.000000	6	205	2	1	0	1	0
1	88	206	90.000000	4	479	0	1	1	1	1
1	89	74	120.000000	6	479	5	2	0	0	0
1	90	153	180.000000	4	479	3	0	0	0	0
1	91	158	120.000000	6	63	3	0	0	0	0
1	92	58	60.000000	3	171	0	1	1	1	1
1	93	90	180.000000	3	479	2	1	0	1	0
1	94	190	30.000000	9	479	0	1	1	1	1
1	95	137	120.000000	9	479	0	3	1	0	0
1	96	70	5.000000	6	257	0	1	1	1	1
1	97	36	30.000000	4	182	0	1	1	1	1
1	98	17	90.000000	6	307	4	5	0	0	0
1	99	48	180.000000	6	479	2	3	0	0	0
1	100	123	120.000000	4	479	0	1	1	1	1
1	101	204	30.000000	4	293	0	1	1	1	1
1	102	14	5.000000	6	479	4	0	0	0	0
1	103	92	30.000000	4	218	0	1	1	1	1
1	104	26	150.000000	9	479	6	7	0	0	0
1	105	211	30.000000	6	191	0	1	1	1	1
1	106	192	90.000000	9	479	6	3	0	0	0
1	107	202	180.000000	3	300	1	2	0	0	0
1	108	118	180.000000	3	479	2	0	0	0	0
1	109	208	150.000000	4	479	0	2	1	0	0
1	110	50	30.000000	9	479	3	8	0	0	0
1	111	124	150.000000	4	479	3	1	0	1	0
1	112	22	30.000000	9	479	1	2	0	0	0
1	113	181	180.000000	4	479	0	2	1	0	0
1	114	126	5.000000	6	437	0	1	1	1	1
1	115	38	90.000000	4	479	0	3	1	0	0
1	116	139	180.000000	9	479	8	6	0	0	0
1	117	205	60.000000	4	172	0	1	1	1	1
1	118	65	60.000000	4	479	3	0	0	0	0
1	119	69	180.000000	4	479	3	0	0	0	0
1	120	98	5.000000	6	147	0	1	1	1	1
1	121	173	150.000000	3	479	2	1	0	1	0
1	122	213	90.000000	6	479	1	2	0	0	0
1	123	132	180.000000	6	201	5	3	0	0	0
1	124	56	5.000000	3	276	0	1	1	1	1
1	125	154	5.000000	6	231	0	1	1	1	1
1	126	170	60.000000	3	142	0	1	1	1	1
1	127	161	5.000000	9	121	0	1	1	1	1
1	128	91	5.000000	4	128	0	1	1	1	1
1	129	108	90.000000	9	341	2	6	0	0	0
1	130	96	150.000000	4	479	0	1	1	1	1
1	131	8	30.000000	4	178	0	1	1	1	1
1	132	2	60.000000	3	149	0	1	1	1	1
1	133	82	150.000000	9	165	3	8	0	0	0
1	134	52	90.000000	9	479	0	1	1	1	1
1	135	100	60.000000	6	410	0	1	1	1	1
1	136	81	120.000000	9	479	0	3	1	0	0
1	137	5	150.000000	3	479	0	1	1	1	1
1	138	109	120.000000	9	350	6	4	0	0	0
1	139	55	180.000000	9	425	8	3	0	0	0
1	140	210	5.000000	6	479	0	1	1	1	1
1	141	83	180.000000	9	479	7	0	0	0	0
1	142	41	180.000000	4	479	3	0	0	0	0
1	143	217	5.000000	9	83	0	1	1	1	1
1	144	134	30.000000	9	186	0	1	1	1	1
1	145	49	5.000000	9	205	0	1	1	1	1
1	146	85	30.000000	3	192	0	1	1	1	1
1	147	148	30.000000	4	102	0	1	1	1	1
1	148	32	120.000000	3	479	0	1	1	1	1
1	149	144	120.000000	3	412	0	1	1	1	1
1	150	127	30.000000	6	479	0	1	1	1	1
1	151	184	60.000000	6	240	0	1	1	1	1
1	152	128	60.000000	6	479	1	5	0	0	0
1	153	203	5.000000	4	176	0	1	1	1	1
1	154	57	30.000000	3	184	0	1	1	1	1
1	155	47	150.000000	6	479	5	3	0	0	0
1	156	84	5.000000	3	181	0	1	1	1	1
1	157	156	60.000000	6	443	0	1	1	1	1
1	158	223	180.000000	9	479	7	0	0	0	0
1	159	163	60.000000	9	479	0	7	1	0	0
1	160	175	5.000000	4	128	0	1	1	1	1
1	161	80	90.000000	9	479	3	1	0	1	0
1	162	219	60.000000	9	376	8	5	0	0	0
1	163	133	5.000000	9	260	0	1	1	1	1
1	164	101	90.000000	6	479	1	0	0	0	0
1	165	72	60.000000	6	467	3	5	0	0	0
1	166	142	60.000000	3	229	0	1	1	1	1
1	167	167	180.000000	9	479	2	8	0	0	0
1	168	164	90.000000	9	479	0	8	1	0	0
1	169	73	90.000000	6	479	5	0	0	0	0
1	170	117	150.000000	3	479	1	2	0	0	0
1	171	95	120.000000	4	479	2	0	0	0	0
1	172	214	120.000000	6	479	5	2	0	0	0
1	173	121	60.000000	4	147	0	1	1	1	1
1	174	30	60.000000	3	257	0	1	1	1	1
1	175	183	30.000000	6	213	0	1	1	1	1
1	176	150	90.000000	4	173	0	2	1	0	0
1	177	177	60.000000	4	274	0	1	1	1	1
1	178	125	180.000000	4	479	0	1	1	1	1
1	179	178	90.000000	4	286	0	1	1	1	1
1	180	64	30.000000	4	80	0	1	1	1	1
1	181	186	120.000000	6	322	5	2	0	0	0
1	182	187	150.000000	6	479	4	0	0	0	0
1	183	185	90.000000	6	247	2	3	0	0	0
1	184	138	150.000000	9	479	5	4	0	0	0
1	185	140	5.000000	3	79	2	0	0	0	0
1	186	193	120.000000	9	479	0	5	1	0	0
1	187	114	60.000000	3	250	0	1	1	1	1
1	188	129	90.000000	6	394	0	1	1	1	1
1	189	155	30.000000	6	179	0	1	1	1	1
1	190	89	150.000000	3	392	0	1	1	1	1
1	191	3	90.000000	3	231	0	1	1	1	1
1	192	51	60.000000	9	311	0	1	1	1	1
1	193	166	150.000000	9	479	0	2	1	0	0
1	194	77	5.000000	9	479	5	2	0	0	0
1	195	45	90.000000	6	326	0	1	1	1	1
1	196	34	180.000000	3	479	2	0	0	0	0
1	197	220	90.000000	9	479	1	6	0	0	0
1	198	171	90.000000	3	391	0	1	1	1	1
1	199	1	30.000000	3	191	0	1	1	1	1
1	200	130	120.000000	6	479	3	0	0	0	0
1	201	198	60.000000	3	141	2	1	0	1	0
1	202	20	180.000000	6	479	1	5	0	0	0
1	203	149	60.000000	4	431	0	1	1	1	1
1	204	147	5.000000	4	102	0	1	1	1	1
1	205	103	150.000000	6	316	0	1	1	1	1
1	206	42	5.000000	6	118	1	5	0	0	0
1	207	66	90.000000	4	479	3	1	0	1	0
1	208	119	5.000000	4	131	0	1	1	1	1
1	209	104	180.000000	6	479	5	3	0	0	0
1	210	40	150.000000	4	479	3	1	0	1	0
1	211	19	150.000000	6	479	4	2	0	0	0
1	212	15	30.000000	6	183	0	1	1	1	1
1	213	195	180.000000	9	479	5	3	0	0	0
1	214	120	30.000000	4	255	0	1	1	1	1
1	215	25	120.000000	9	479	1	3	0	0	0
1	216	194	150.000000	9	479	6	7	0	0	0
1	217	110	150.000000	9	479	5	2	0	0	0
1	218	169	30.000000	3	103	0	1	1	1	1
1	219	43	30.000000	6	128	0	1	1	1	1
1	220	122	90.000000	4	479	3	2	0	0	0
1	221	99	30.000000	6	236	0	1	1	1	1
1	222	189	5.000000	9	307	0	1	1	1	1
1	223	221	120.000000	9	479	0	7	1	0	0
