subNum	trialNum	fileNum	chasing_subtlety	num_item	frames	selected_wolf	selected_sheep	wolf_acc	sheep_acc	chasing_acc
----------------------------------------------------------
1	0	67	120.000000	4	479	0	2	1	0	0
1	1	22	30.000000	9	479	1	6	0	0	0
1	2	175	5.000000	4	469	0	1	1	1	1
1	3	191	60.000000	9	479	2	1	0	1	0
1	4	202	180.000000	3	479	1	2	0	0	0
1	5	200	120.000000	3	479	0	1	1	1	1
1	6	211	30.000000	6	479	0	1	1	1	1
1	7	136	90.000000	9	479	8	6	0	0	0
1	8	195	180.000000	9	479	6	2	0	0	0
1	9	166	150.000000	9	479	2	7	0	0	0
1	10	154	5.000000	6	374	0	1	1	1	1
1	11	5	150.000000	3	479	0	2	1	0	0
1	12	158	120.000000	6	470	2	4	0	0	0
1	13	168	5.000000	3	190	0	1	1	1	1
1	14	138	150.000000	9	479	2	3	0	0	0
1	15	34	180.000000	3	479	2	1	0	1	0
1	16	180	150.000000	4	479	2	3	0	0	0
1	17	124	150.000000	4	479	0	1	1	1	1
1	18	153	180.000000	4	479	1	2	0	0	0
1	19	14	5.000000	6	191	0	1	1	1	1
1	20	63	5.000000	4	234	2	3	0	0	0
1	21	184	60.000000	6	247	0	1	1	1	1
1	22	102	120.000000	6	479	3	2	0	0	0
1	23	90	180.000000	3	479	2	0	0	0	0
1	24	25	120.000000	9	479	6	4	0	0	0
1	25	112	5.000000	3	148	0	1	1	1	1
1	26	20	180.000000	6	479	5	1	0	1	0
1	27	183	30.000000	6	237	0	1	1	1	1
1	28	157	90.000000	6	273	2	3	0	0	0
1	29	206	90.000000	4	479	3	2	0	0	0
1	30	130	120.000000	6	479	2	4	0	0	0
1	31	56	5.000000	3	283	0	1	1	1	1
1	32	92	30.000000	4	268	0	1	1	1	1
1	33	118	180.000000	3	479	0	2	1	0	0
1	34	68	150.000000	4	479	1	2	0	0	0
1	35	160	180.000000	6	330	2	5	0	0	0
1	36	62	180.000000	3	479	0	2	1	0	0
1	37	148	30.000000	4	175	0	1	1	1	1
1	38	71	30.000000	6	122	0	1	1	1	1
1	39	72	60.000000	6	288	0	1	1	1	1
1	40	192	90.000000	9	479	7	4	0	0	0
1	41	28	5.000000	3	154	0	1	1	1	1
1	42	79	60.000000	9	479	0	1	1	1	1
1	43	65	60.000000	4	400	0	1	1	1	1
1	44	35	5.000000	4	479	0	1	1	1	1
1	45	89	150.000000	3	479	2	0	0	0	0
1	46	210	5.000000	6	213	0	1	1	1	1
1	47	95	120.000000	4	479	0	2	1	0	0
1	48	46	120.000000	6	479	5	1	0	1	0
1	49	182	5.000000	6	454	0	1	1	1	1
1	50	77	5.000000	9	152	0	1	1	1	1
1	51	156	60.000000	6	479	3	5	0	0	0
1	52	119	5.000000	4	126	0	1	1	1	1
1	53	190	30.000000	9	479	0	1	1	1	1
1	54	85	30.000000	3	204	0	1	1	1	1
1	55	212	60.000000	6	177	0	1	1	1	1
1	56	52	90.000000	9	479	1	4	0	0	0
1	57	19	150.000000	6	479	3	0	0	0	0
1	58	125	180.000000	4	479	0	3	1	0	0
1	59	36	30.000000	4	221	0	1	1	1	1
1	60	96	150.000000	4	479	2	0	0	0	0
1	61	149	60.000000	4	101	0	3	1	0	0
1	62	141	30.000000	3	148	0	1	1	1	1
1	63	8	30.000000	4	347	0	1	1	1	1
1	64	213	90.000000	6	479	2	1	0	1	0
1	65	91	5.000000	4	137	0	1	1	1	1
1	66	220	90.000000	9	479	3	8	0	0	0
1	67	26	150.000000	9	479	4	8	0	0	0
1	68	42	5.000000	6	108	0	1	1	1	1
1	69	78	30.000000	9	129	0	1	1	1	1
1	70	70	5.000000	6	199	0	1	1	1	1
1	71	40	150.000000	4	479	1	3	0	0	0
1	72	58	60.000000	3	263	0	1	1	1	1
1	73	208	150.000000	4	479	0	1	1	1	1
1	74	144	120.000000	3	479	0	1	1	1	1
1	75	121	60.000000	4	479	2	3	0	0	0
1	76	98	5.000000	6	95	0	1	1	1	1
1	77	11	120.000000	4	245	2	0	0	0	0
1	78	196	5.000000	3	165	0	1	1	1	1
1	79	37	60.000000	4	149	0	1	1	1	1
1	80	15	30.000000	6	186	0	1	1	1	1
1	81	110	150.000000	9	479	0	4	1	0	0
1	82	9	60.000000	4	124	0	1	1	1	1
1	83	6	180.000000	3	414	1	2	0	0	0
1	84	86	60.000000	3	204	0	1	1	1	1
1	85	197	30.000000	3	125	0	1	1	1	1
1	86	198	60.000000	3	233	2	0	0	0	0
1	87	171	90.000000	3	227	0	1	1	1	1
1	88	29	30.000000	3	133	0	1	1	1	1
1	89	181	180.000000	4	479	0	2	1	0	0
1	90	188	180.000000	6	479	3	5	0	0	0
1	91	45	90.000000	6	479	4	3	0	0	0
1	92	150	90.000000	4	475	0	1	1	1	1
1	93	17	90.000000	6	479	0	1	1	1	1
1	94	179	120.000000	4	259	2	1	0	1	0
1	95	13	180.000000	4	479	3	1	0	1	0
1	96	189	5.000000	9	446	0	1	1	1	1
1	97	174	180.000000	3	479	1	2	0	0	0
1	98	101	90.000000	6	479	3	5	0	0	0
1	99	152	150.000000	4	479	2	0	0	0	0
1	100	113	30.000000	3	233	0	1	1	1	1
1	101	187	150.000000	6	479	3	5	0	0	0
1	102	109	120.000000	9	479	5	3	0	0	0
1	103	81	120.000000	9	479	5	6	0	0	0
1	104	218	30.000000	9	479	0	1	1	1	1
1	105	126	5.000000	6	158	0	1	1	1	1
1	106	23	60.000000	9	361	0	1	1	1	1
1	107	21	5.000000	9	479	5	6	0	0	0
1	108	221	120.000000	9	479	5	1	0	1	0
1	109	106	30.000000	9	376	0	1	1	1	1
1	110	122	90.000000	4	184	0	1	1	1	1
1	111	32	120.000000	3	479	1	0	0	0	0
1	112	60	120.000000	3	479	2	0	0	0	0
1	113	57	30.000000	3	97	0	1	1	1	1
1	114	223	180.000000	9	479	4	6	0	0	0
1	115	74	120.000000	6	479	0	5	1	0	0
1	116	222	150.000000	9	479	4	6	0	0	0
1	117	99	30.000000	6	479	0	4	1	0	0
1	118	27	180.000000	9	479	4	0	0	0	0
1	119	97	180.000000	4	479	2	3	0	0	0
1	120	161	5.000000	9	365	0	1	1	1	1
1	121	55	180.000000	9	479	5	3	0	0	0
1	122	120	30.000000	4	240	0	1	1	1	1
1	123	135	60.000000	9	479	2	8	0	0	0
1	124	117	150.000000	3	479	0	1	1	1	1
1	125	163	60.000000	9	479	2	1	0	1	0
1	126	201	150.000000	3	479	0	1	1	1	1
1	127	2	60.000000	3	435	0	1	1	1	1
1	128	142	60.000000	3	424	0	1	1	1	1
1	129	170	60.000000	3	165	0	1	1	1	1
1	130	3	90.000000	3	336	0	1	1	1	1
1	131	111	180.000000	9	345	6	4	0	0	0
1	132	193	120.000000	9	479	5	8	0	0	0
1	133	69	180.000000	4	479	0	2	1	0	0
1	134	167	180.000000	9	479	3	2	0	0	0
1	135	209	180.000000	4	479	0	1	1	1	1
1	136	30	60.000000	3	346	0	1	1	1	1
1	137	47	150.000000	6	479	1	4	0	0	0
1	138	4	120.000000	3	223	2	0	0	0	0
1	139	147	5.000000	4	148	0	1	1	1	1
1	140	24	90.000000	9	479	8	0	0	0	0
1	141	18	120.000000	6	479	0	1	1	1	1
1	142	162	30.000000	9	399	0	1	1	1	1
1	143	140	5.000000	3	175	0	1	1	1	1
1	144	53	120.000000	9	479	7	4	0	0	0
1	145	139	180.000000	9	479	8	7	0	0	0
1	146	31	90.000000	3	346	0	1	1	1	1
1	147	84	5.000000	3	239	0	1	1	1	1
1	148	177	60.000000	4	462	0	1	1	1	1
1	149	172	120.000000	3	245	0	1	1	1	1
1	150	159	150.000000	6	479	4	3	0	0	0
1	151	165	120.000000	9	479	5	7	0	0	0
1	152	44	60.000000	6	479	0	1	1	1	1
1	153	66	90.000000	4	479	0	1	1	1	1
1	154	134	30.000000	9	479	8	6	0	0	0
1	155	1	30.000000	3	270	0	1	1	1	1
1	156	199	90.000000	3	333	0	1	1	1	1
1	157	61	150.000000	3	479	2	0	0	0	0
1	158	145	150.000000	3	479	0	1	1	1	1
1	159	194	150.000000	9	479	5	2	0	0	0
1	160	151	120.000000	4	479	3	2	0	0	0
1	161	107	60.000000	9	323	0	1	1	1	1
1	162	94	90.000000	4	479	1	3	0	0	0
1	163	48	180.000000	6	479	4	3	0	0	0
1	164	185	90.000000	6	479	4	2	0	0	0
1	165	131	150.000000	6	479	2	3	0	0	0
1	166	59	90.000000	3	479	2	1	0	1	0
1	167	204	30.000000	4	141	0	1	1	1	1
1	168	50	30.000000	9	479	6	7	0	0	0
1	169	82	150.000000	9	479	1	6	0	0	0
1	170	133	5.000000	9	348	0	1	1	1	1
1	171	0	5.000000	3	73	0	1	1	1	1
1	172	104	180.000000	6	479	5	3	0	0	0
1	173	155	30.000000	6	229	0	1	1	1	1
1	174	207	120.000000	4	284	0	1	1	1	1
1	175	76	180.000000	6	479	5	0	0	0	0
1	176	143	90.000000	3	296	0	1	1	1	1
1	177	43	30.000000	6	241	0	1	1	1	1
1	178	41	180.000000	4	479	3	2	0	0	0
1	179	173	150.000000	3	479	2	1	0	1	0
1	180	132	180.000000	6	479	3	2	0	0	0
1	181	80	90.000000	9	479	7	3	0	0	0
1	182	105	5.000000	9	238	0	1	1	1	1
1	183	137	120.000000	9	292	8	7	0	0	0
1	184	214	120.000000	6	479	3	4	0	0	0
1	185	116	120.000000	3	249	0	1	1	1	1
1	186	51	60.000000	9	479	0	1	1	1	1
1	187	186	120.000000	6	479	0	1	1	1	1
1	188	127	30.000000	6	100	0	1	1	1	1
1	189	87	90.000000	3	85	2	0	0	0	0
1	190	73	90.000000	6	285	0	1	1	1	1
1	191	128	60.000000	6	242	0	1	1	1	1
1	192	108	90.000000	9	479	3	4	0	0	0
1	193	114	60.000000	3	341	0	1	1	1	1
1	194	83	180.000000	9	479	7	3	0	0	0
1	195	115	90.000000	3	451	0	1	1	1	1
1	196	93	60.000000	4	238	0	1	1	1	1
1	197	169	30.000000	3	100	0	1	1	1	1
1	198	178	90.000000	4	479	1	3	0	0	0
1	199	217	5.000000	9	479	0	1	1	1	1
1	200	75	150.000000	6	479	2	4	0	0	0
1	201	219	60.000000	9	123	1	5	0	0	0
1	202	33	150.000000	3	479	0	2	1	0	0
1	203	39	120.000000	4	479	0	1	1	1	1
1	204	16	60.000000	6	479	5	0	0	0	0
1	205	203	5.000000	4	119	0	1	1	1	1
1	206	164	90.000000	9	479	5	2	0	0	0
1	207	100	60.000000	6	479	1	2	0	0	0
1	208	123	120.000000	4	382	1	2	0	0	0
1	209	129	90.000000	6	479	3	5	0	0	0
1	210	38	90.000000	4	293	0	1	1	1	1
1	211	215	150.000000	6	479	5	1	0	1	0
1	212	216	180.000000	6	479	4	5	0	0	0
1	213	146	180.000000	3	479	1	0	0	0	0
1	214	7	5.000000	4	108	0	1	1	1	1
1	215	10	90.000000	4	479	2	1	0	1	0
1	216	12	150.000000	4	479	1	3	0	0	0
1	217	54	150.000000	9	479	4	7	0	0	0
1	218	49	5.000000	9	479	0	1	1	1	1
1	219	176	30.000000	4	142	0	1	1	1	1
1	220	205	60.000000	4	479	0	2	1	0	0
1	221	103	150.000000	6	479	3	5	0	0	0
1	222	64	30.000000	4	241	0	1	1	1	1
1	223	88	120.000000	3	281	0	1	1	1	1
