subNum	trialNum	fileNum	chasing_subtlety	num_item	frames	selected_wolf	selected_sheep	wolf_acc	sheep_acc	chasing_acc
----------------------------------------------------------
1	0	221	120.000000	9	479	2	7	0	0	0
1	1	47	150.000000	6	479	0	4	1	0	0
1	2	150	90.000000	4	479	3	2	0	0	0
1	3	120	30.000000	4	307	0	1	1	1	1
1	4	159	150.000000	6	479	4	3	0	0	0
1	5	197	30.000000	3	160	0	1	1	1	1
1	6	136	90.000000	9	479	4	5	0	0	0
1	7	81	120.000000	9	479	5	6	0	0	0
1	8	42	5.000000	6	220	0	1	1	1	1
1	9	53	120.000000	9	479	1	5	0	0	0
1	10	25	120.000000	9	401	2	7	0	0	0
1	11	138	150.000000	9	422	0	8	1	0	0
1	12	28	5.000000	3	253	0	1	1	1	1
1	13	19	150.000000	6	479	0	1	1	1	1
1	14	26	150.000000	9	479	7	8	0	0	0
1	15	147	5.000000	4	479	0	1	1	1	1
1	16	155	30.000000	6	281	0	1	1	1	1
1	17	60	120.000000	3	479	0	1	1	1	1
1	18	173	150.000000	3	479	1	2	0	0	0
1	19	146	180.000000	3	479	1	2	0	0	0
1	20	14	5.000000	6	273	0	1	1	1	1
1	21	65	60.000000	4	321	0	1	1	1	1
1	22	66	90.000000	4	459	0	1	1	1	1
1	23	6	180.000000	3	479	0	1	1	1	1
1	24	29	30.000000	3	233	0	1	1	1	1
1	25	186	120.000000	6	479	5	2	0	0	0
1	26	172	120.000000	3	479	1	2	0	0	0
1	27	108	90.000000	9	479	3	0	0	0	0
1	28	56	5.000000	3	266	0	1	1	1	1
1	29	171	90.000000	3	382	0	1	1	1	1
1	30	8	30.000000	4	250	0	1	1	1	1
1	31	77	5.000000	9	479	0	8	1	0	0
1	32	88	120.000000	3	479	0	1	1	1	1
1	33	218	30.000000	9	479	0	1	1	1	1
1	34	18	120.000000	6	479	4	5	0	0	0
1	35	163	60.000000	9	479	0	1	1	1	1
1	36	204	30.000000	4	127	0	1	1	1	1
1	37	62	180.000000	3	479	2	0	0	0	0
1	38	127	30.000000	6	184	0	1	1	1	1
1	39	126	5.000000	6	439	0	1	1	1	1
1	40	40	150.000000	4	479	2	0	0	0	0
1	41	79	60.000000	9	479	0	1	1	1	1
1	42	104	180.000000	6	479	0	5	1	0	0
1	43	49	5.000000	9	185	0	1	1	1	1
1	44	141	30.000000	3	149	0	1	1	1	1
1	45	90	180.000000	3	479	0	2	1	0	0
1	46	15	30.000000	6	479	0	1	1	1	1
1	47	11	120.000000	4	479	3	1	0	1	0
1	48	52	90.000000	9	479	8	2	0	0	0
1	49	130	120.000000	6	479	1	2	0	0	0
1	50	185	90.000000	6	479	5	3	0	0	0
1	51	125	180.000000	4	479	3	0	0	0	0
1	52	23	60.000000	9	479	3	0	0	0	0
1	53	178	90.000000	4	457	0	1	1	1	1
1	54	145	150.000000	3	479	0	1	1	1	1
1	55	160	180.000000	6	479	2	5	0	0	0
1	56	179	120.000000	4	479	0	1	1	1	1
1	57	5	150.000000	3	479	0	2	1	0	0
1	58	61	150.000000	3	479	2	0	0	0	0
1	59	194	150.000000	9	479	7	3	0	0	0
1	60	55	180.000000	9	479	8	3	0	0	0
1	61	109	120.000000	9	479	0	5	1	0	0
1	62	209	180.000000	4	479	2	1	0	1	0
1	63	124	150.000000	4	479	0	1	1	1	1
1	64	38	90.000000	4	479	2	0	0	0	0
1	65	205	60.000000	4	311	0	1	1	1	1
1	66	16	60.000000	6	451	4	3	0	0	0
1	67	170	60.000000	3	248	0	1	1	1	1
1	68	168	5.000000	3	245	0	1	1	1	1
1	69	199	90.000000	3	290	0	1	1	1	1
1	70	78	30.000000	9	204	0	1	1	1	1
1	71	106	30.000000	9	479	5	0	0	0	0
1	72	202	180.000000	3	330	1	2	0	0	0
1	73	107	60.000000	9	479	7	5	0	0	0
1	74	80	90.000000	9	479	3	2	0	0	0
1	75	57	30.000000	3	184	0	1	1	1	1
1	76	182	5.000000	6	369	0	1	1	1	1
1	77	154	5.000000	6	158	0	1	1	1	1
1	78	177	60.000000	4	258	0	1	1	1	1
1	79	139	180.000000	9	479	5	3	0	0	0
1	80	214	120.000000	6	479	0	5	1	0	0
1	81	33	150.000000	3	479	0	1	1	1	1
1	82	21	5.000000	9	355	0	1	1	1	1
1	83	176	30.000000	4	87	0	1	1	1	1
1	84	97	180.000000	4	394	2	3	0	0	0
1	85	206	90.000000	4	479	0	1	1	1	1
1	86	153	180.000000	4	479	1	2	0	0	0
1	87	9	60.000000	4	134	0	1	1	1	1
1	88	210	5.000000	6	243	0	1	1	1	1
1	89	181	180.000000	4	479	1	2	0	0	0
1	90	140	5.000000	3	211	0	1	1	1	1
1	91	161	5.000000	9	184	0	1	1	1	1
1	92	105	5.000000	9	165	0	1	1	1	1
1	93	223	180.000000	9	479	3	2	0	0	0
1	94	198	60.000000	3	479	0	1	1	1	1
1	95	96	150.000000	4	479	0	1	1	1	1
1	96	143	90.000000	3	435	0	1	1	1	1
1	97	188	180.000000	6	479	5	2	0	0	0
1	98	134	30.000000	9	315	0	1	1	1	1
1	99	193	120.000000	9	479	5	0	0	0	0
1	100	91	5.000000	4	113	0	1	1	1	1
1	101	164	90.000000	9	479	2	4	0	0	0
1	102	102	120.000000	6	342	1	2	0	0	0
1	103	17	90.000000	6	479	3	1	0	1	0
1	104	128	60.000000	6	305	0	1	1	1	1
1	105	35	5.000000	4	223	0	1	1	1	1
1	106	113	30.000000	3	223	0	1	1	1	1
1	107	54	150.000000	9	479	4	7	0	0	0
1	108	169	30.000000	3	157	0	1	1	1	1
1	109	217	5.000000	9	201	0	1	1	1	1
1	110	219	60.000000	9	479	0	1	1	1	1
1	111	45	90.000000	6	479	0	1	1	1	1
1	112	142	60.000000	3	429	0	1	1	1	1
1	113	115	90.000000	3	479	2	0	0	0	0
1	114	48	180.000000	6	479	0	5	1	0	0
1	115	222	150.000000	9	479	4	6	0	0	0
1	116	2	60.000000	3	159	0	1	1	1	1
1	117	184	60.000000	6	441	2	0	0	0	0
1	118	166	150.000000	9	479	0	6	1	0	0
1	119	132	180.000000	6	479	1	3	0	0	0
1	120	110	150.000000	9	479	8	7	0	0	0
1	121	103	150.000000	6	479	0	2	1	0	0
1	122	213	90.000000	6	479	1	4	0	0	0
1	123	58	60.000000	3	479	0	1	1	1	1
1	124	100	60.000000	6	479	0	1	1	1	1
1	125	31	90.000000	3	281	0	1	1	1	1
1	126	12	150.000000	4	479	0	2	1	0	0
1	127	70	5.000000	6	309	0	1	1	1	1
1	128	156	60.000000	6	327	0	1	1	1	1
1	129	0	5.000000	3	139	0	1	1	1	1
1	130	207	120.000000	4	479	3	2	0	0	0
1	131	98	5.000000	6	137	0	1	1	1	1
1	132	175	5.000000	4	296	0	1	1	1	1
1	133	212	60.000000	6	479	5	1	0	1	0
1	134	122	90.000000	4	479	3	2	0	0	0
1	135	24	90.000000	9	479	0	2	1	0	0
1	136	191	60.000000	9	479	2	3	0	0	0
1	137	144	120.000000	3	479	0	2	1	0	0
1	138	131	150.000000	6	479	3	5	0	0	0
1	139	82	150.000000	9	479	4	5	0	0	0
1	140	84	5.000000	3	479	0	1	1	1	1
1	141	41	180.000000	4	479	0	1	1	1	1
1	142	74	120.000000	6	479	3	2	0	0	0
1	143	83	180.000000	9	479	2	7	0	0	0
1	144	32	120.000000	3	479	1	2	0	0	0
1	145	67	120.000000	4	479	2	0	0	0	0
1	146	10	90.000000	4	479	0	1	1	1	1
1	147	73	90.000000	6	479	0	1	1	1	1
1	148	50	30.000000	9	479	0	1	1	1	1
1	149	68	150.000000	4	479	3	2	0	0	0
1	150	119	5.000000	4	479	0	1	1	1	1
1	151	116	120.000000	3	479	0	1	1	1	1
1	152	76	180.000000	6	479	0	5	1	0	0
1	153	203	5.000000	4	479	0	1	1	1	1
1	154	195	180.000000	9	479	5	3	0	0	0
1	155	93	60.000000	4	479	0	1	1	1	1
1	156	111	180.000000	9	479	3	7	0	0	0
1	157	167	180.000000	9	479	2	0	0	0	0
1	158	187	150.000000	6	479	0	4	1	0	0
1	159	99	30.000000	6	479	0	1	1	1	1
1	160	220	90.000000	9	479	3	0	0	0	0
1	161	133	5.000000	9	479	0	1	1	1	1
1	162	196	5.000000	3	479	0	1	1	1	1
1	163	34	180.000000	3	479	0	2	1	0	0
1	164	152	150.000000	4	479	2	1	0	1	0
1	165	20	180.000000	6	479	1	5	0	0	0
1	166	87	90.000000	3	479	0	1	1	1	1
1	167	71	30.000000	6	479	0	1	1	1	1
1	168	1	30.000000	3	479	1	2	0	0	0
1	169	215	150.000000	6	479	5	3	0	0	0
1	170	92	30.000000	4	479	0	1	1	1	1
1	171	30	60.000000	3	479	0	1	1	1	1
1	172	4	120.000000	3	479	0	1	1	1	1
1	173	162	30.000000	9	479	0	1	1	1	1
1	174	72	60.000000	6	479	0	1	1	1	1
1	175	121	60.000000	4	479	0	1	1	1	1
1	176	36	30.000000	4	479	0	1	1	1	1
1	177	46	120.000000	6	479	2	5	0	0	0
1	178	174	180.000000	3	479	2	1	0	1	0
1	179	165	120.000000	9	479	5	7	0	0	0
1	180	200	120.000000	3	479	0	1	1	1	1
1	181	114	60.000000	3	479	2	1	0	1	0
1	182	7	5.000000	4	479	0	1	1	1	1
1	183	117	150.000000	3	479	2	1	0	1	0
1	184	63	5.000000	4	479	0	1	1	1	1
1	185	201	150.000000	3	479	0	1	1	1	1
1	186	149	60.000000	4	479	0	1	1	1	1
1	187	86	60.000000	3	479	0	1	1	1	1
1	188	208	150.000000	4	479	2	0	0	0	0
1	189	157	90.000000	6	479	0	1	1	1	1
1	190	43	30.000000	6	479	0	1	1	1	1
1	191	151	120.000000	4	479	3	0	0	0	0
1	192	27	180.000000	9	479	4	6	0	0	0
1	193	95	120.000000	4	479	2	1	0	1	0
1	194	189	5.000000	9	299	0	1	1	1	1
1	195	39	120.000000	4	461	3	2	0	0	0
1	196	112	5.000000	3	89	0	1	1	1	1
1	197	148	30.000000	4	140	0	1	1	1	1
1	198	137	120.000000	9	479	0	4	1	0	0
1	199	13	180.000000	4	479	0	1	1	1	1
1	200	22	30.000000	9	406	0	1	1	1	1
1	201	192	90.000000	9	479	2	3	0	0	0
1	202	183	30.000000	6	162	0	1	1	1	1
1	203	75	150.000000	6	479	0	3	1	0	0
1	204	59	90.000000	3	479	2	0	0	0	0
1	205	3	90.000000	3	368	0	1	1	1	1
1	206	135	60.000000	9	479	3	6	0	0	0
1	207	216	180.000000	6	479	2	1	0	1	0
1	208	211	30.000000	6	271	0	1	1	1	1
1	209	64	30.000000	4	120	0	1	1	1	1
1	210	123	120.000000	4	383	1	2	0	0	0
1	211	69	180.000000	4	479	3	2	0	0	0
1	212	37	60.000000	4	123	0	1	1	1	1
1	213	129	90.000000	6	479	0	1	1	1	1
1	214	180	150.000000	4	479	1	3	0	0	0
1	215	158	120.000000	6	434	0	1	1	1	1
1	216	85	30.000000	3	173	0	1	1	1	1
1	217	89	150.000000	3	479	2	0	0	0	0
1	218	101	90.000000	6	479	4	0	0	0	0
1	219	190	30.000000	9	479	3	1	0	1	0
1	220	51	60.000000	9	479	0	1	1	1	1
1	221	94	90.000000	4	479	1	3	0	0	0
1	222	118	180.000000	3	479	0	1	1	1	1
1	223	44	60.000000	6	450	0	1	1	1	1
