subNum	trialNum	fileNum	chasing_subtlety	num_item	frames	selected_wolf	selected_sheep	wolf_acc	sheep_acc	chasing_acc
----------------------------------------------------------
1	0	74	60.000000	6	479	0	1	1	1	1
1	1	91	30.000000	9	479	0	1	1	1	1
1	2	14	60.000000	6	479	0	1	1	1	1
1	3	103	30.000000	9	479	0	1	1	1	1
1	4	107	30.000000	9	479	0	6	1	0	0
1	5	47	30.000000	9	479	0	1	1	1	1
1	6	85	90.000000	4	479	0	1	1	1	1
1	7	87	30.000000	9	479	0	1	1	1	1
1	8	18	60.000000	6	479	0	1	1	1	1
1	9	110	60.000000	6	479	0	2	1	0	0
1	10	81	90.000000	4	479	0	1	1	1	1
1	11	111	30.000000	9	479	0	1	1	1	1
1	12	119	30.000000	9	479	8	3	0	0	0
1	13	100	120.000000	3	479	0	1	1	1	1
1	14	50	60.000000	6	479	0	1	1	1	1
1	15	101	90.000000	4	479	0	1	1	1	1
1	16	41	90.000000	4	479	0	1	1	1	1
1	17	44	120.000000	3	479	0	1	1	1	1
1	18	5	90.000000	4	479	3	0	0	0	0
1	19	114	60.000000	6	479	0	1	1	1	1
1	20	106	60.000000	6	479	0	1	1	1	1
1	21	113	90.000000	4	479	0	1	1	1	1
1	22	36	120.000000	3	479	0	1	1	1	1
1	23	86	60.000000	6	479	0	1	1	1	1
1	24	56	120.000000	3	479	2	0	0	0	0
1	25	53	90.000000	4	479	0	2	1	0	0
1	26	39	30.000000	9	479	4	7	0	0	0
1	27	2	60.000000	6	479	0	1	1	1	1
1	28	0	120.000000	3	479	0	1	1	1	1
1	29	23	30.000000	9	479	0	1	1	1	1
1	30	79	30.000000	9	479	0	1	1	1	1
1	31	95	30.000000	9	479	0	1	1	1	1
1	32	112	120.000000	3	479	0	1	1	1	1
1	33	83	30.000000	9	479	0	1	1	1	1
1	34	26	60.000000	6	479	5	1	0	1	0
1	35	42	60.000000	6	479	0	1	1	1	1
1	36	73	90.000000	4	479	3	2	0	0	0
1	37	8	120.000000	3	479	0	1	1	1	1
1	38	51	30.000000	9	479	0	1	1	1	1
1	39	6	60.000000	6	479	1	4	0	0	0
1	40	61	90.000000	4	479	0	1	1	1	1
1	41	11	30.000000	9	479	0	1	1	1	1
1	42	58	60.000000	6	479	5	1	0	1	0
1	43	94	60.000000	6	479	2	3	0	0	0
1	44	82	60.000000	6	479	0	1	1	1	1
1	45	17	90.000000	4	479	0	1	1	1	1
1	46	108	120.000000	3	479	0	2	1	0	0
1	47	22	60.000000	6	479	3	0	0	0	0
1	48	20	120.000000	3	479	2	0	0	0	0
1	49	90	60.000000	6	479	0	1	1	1	1
1	50	65	90.000000	4	479	0	1	1	1	1
1	51	104	120.000000	3	479	0	1	1	1	1
1	52	30	60.000000	6	479	0	1	1	1	1
1	53	105	90.000000	4	479	0	1	1	1	1
1	54	67	30.000000	9	479	3	2	0	0	0
1	55	60	120.000000	3	479	2	0	0	0	0
1	56	1	90.000000	4	479	2	1	0	1	0
1	57	54	60.000000	6	479	0	3	1	0	0
1	58	52	120.000000	3	479	0	1	1	1	1
1	59	77	90.000000	4	479	1	0	0	0	0
1	60	71	30.000000	9	479	0	1	1	1	1
1	61	88	120.000000	3	479	0	1	1	1	1
1	62	32	120.000000	3	479	0	1	1	1	1
1	63	24	120.000000	3	479	0	1	1	1	1
1	64	102	60.000000	6	479	0	1	1	1	1
1	65	38	60.000000	6	479	0	1	1	1	1
1	66	70	60.000000	6	479	4	5	0	0	0
1	67	16	120.000000	3	479	0	1	1	1	1
1	68	96	120.000000	3	479	0	2	1	0	0
1	69	118	60.000000	6	479	0	1	1	1	1
1	70	31	30.000000	9	479	5	4	0	0	0
1	71	115	30.000000	9	479	0	1	1	1	1
1	72	55	30.000000	9	479	4	8	0	0	0
1	73	76	120.000000	3	479	0	1	1	1	1
1	74	93	90.000000	4	479	0	1	1	1	1
1	75	12	120.000000	3	479	0	1	1	1	1
1	76	89	90.000000	4	479	0	1	1	1	1
1	77	27	30.000000	9	479	0	1	1	1	1
1	78	45	90.000000	4	479	2	0	0	0	0
1	79	28	120.000000	3	479	0	2	1	0	0
1	80	80	120.000000	3	479	0	1	1	1	1
1	81	21	90.000000	4	479	0	1	1	1	1
1	82	25	90.000000	4	479	0	1	1	1	1
1	83	4	120.000000	3	479	0	1	1	1	1
1	84	3	30.000000	9	479	0	1	1	1	1
1	85	68	120.000000	3	479	0	1	1	1	1
1	86	34	60.000000	6	479	0	1	1	1	1
1	87	75	30.000000	9	479	0	1	1	1	1
1	88	9	90.000000	4	479	0	1	1	1	1
1	89	33	90.000000	4	479	0	1	1	1	1
1	90	43	30.000000	9	479	4	6	0	0	0
1	91	19	30.000000	9	479	0	1	1	1	1
1	92	72	120.000000	3	479	2	1	0	1	0
1	93	84	120.000000	3	479	0	1	1	1	1
1	94	40	120.000000	3	479	0	1	1	1	1
1	95	63	30.000000	9	479	6	0	0	0	0
1	96	57	90.000000	4	479	3	1	0	1	0
1	97	69	90.000000	4	479	0	1	1	1	1
1	98	15	30.000000	9	479	0	1	1	1	1
1	99	13	90.000000	4	479	0	1	1	1	1
1	100	49	90.000000	4	479	0	1	1	1	1
1	101	37	90.000000	4	479	3	2	0	0	0
1	102	109	90.000000	4	479	2	1	0	1	0
1	103	97	90.000000	4	479	0	1	1	1	1
1	104	92	120.000000	3	479	0	1	1	1	1
1	105	29	90.000000	4	479	0	1	1	1	1
1	106	59	30.000000	9	479	0	1	1	1	1
1	107	116	120.000000	3	479	0	1	1	1	1
1	108	35	30.000000	9	479	1	0	0	0	0
1	109	64	120.000000	3	479	0	1	1	1	1
1	110	66	60.000000	6	479	1	0	0	0	0
1	111	62	60.000000	6	479	2	0	0	0	0
1	112	99	30.000000	9	479	0	1	1	1	1
1	113	98	60.000000	6	479	0	1	1	1	1
1	114	48	120.000000	3	479	2	0	0	0	0
1	115	46	60.000000	6	479	4	1	0	1	0
1	116	117	90.000000	4	479	0	1	1	1	1
1	117	78	60.000000	6	479	0	1	1	1	1
1	118	7	30.000000	9	479	0	1	1	1	1
1	119	10	60.000000	6	479	3	1	0	1	0
