subNum	trialNum	fileNum	chasing_subtlety	num_item	frames	selected_wolf	selected_sheep	wolf_acc	sheep_acc	chasing_acc
----------------------------------------------------------
1	0	8	120.000000	3	479	0	1	1	1	1
1	1	60	120.000000	3	479	0	2	1	0	0
1	2	41	90.000000	4	410	0	1	1	1	1
1	3	30	60.000000	6	479	4	5	0	0	0
1	4	40	120.000000	3	243	2	1	0	1	0
1	5	37	90.000000	4	470	0	1	1	1	1
1	6	62	60.000000	6	479	0	1	1	1	1
1	7	71	30.000000	9	479	0	5	1	0	0
1	8	117	90.000000	4	479	2	3	0	0	0
1	9	31	30.000000	9	479	4	6	0	0	0
1	10	45	90.000000	4	479	0	1	1	1	1
1	11	100	120.000000	3	479	0	1	1	1	1
1	12	23	30.000000	9	273	0	1	1	1	1
1	13	103	30.000000	9	391	0	1	1	1	1
1	14	34	60.000000	6	375	0	1	1	1	1
1	15	110	60.000000	6	393	2	5	0	0	0
1	16	99	30.000000	9	479	4	6	0	0	0
1	17	42	60.000000	6	304	0	1	1	1	1
1	18	96	120.000000	3	479	0	1	1	1	1
1	19	101	90.000000	4	479	0	1	1	1	1
1	20	36	120.000000	3	423	1	2	0	0	0
1	21	5	90.000000	4	440	0	1	1	1	1
1	22	67	30.000000	9	479	7	1	0	1	0
1	23	95	30.000000	9	431	0	1	1	1	1
1	24	66	60.000000	6	245	5	0	0	0	0
1	25	104	120.000000	3	479	2	0	0	0	0
1	26	88	120.000000	3	479	0	1	1	1	1
1	27	78	60.000000	6	479	0	5	1	0	0
1	28	6	60.000000	6	295	0	5	1	0	0
1	29	68	120.000000	3	415	1	2	0	0	0
1	30	0	120.000000	3	479	0	1	1	1	1
1	31	20	120.000000	3	479	0	2	1	0	0
1	32	21	90.000000	4	479	0	2	1	0	0
1	33	16	120.000000	3	479	1	2	0	0	0
1	34	2	60.000000	6	479	2	3	0	0	0
1	35	32	120.000000	3	479	2	0	0	0	0
1	36	97	90.000000	4	285	0	1	1	1	1
1	37	63	30.000000	9	479	7	5	0	0	0
1	38	35	30.000000	9	385	0	1	1	1	1
1	39	76	120.000000	3	479	0	1	1	1	1
1	40	75	30.000000	9	435	0	1	1	1	1
1	41	50	60.000000	6	354	1	3	0	0	0
1	42	64	120.000000	3	479	2	0	0	0	0
1	43	115	30.000000	9	211	0	1	1	1	1
1	44	19	30.000000	9	235	6	8	0	0	0
1	45	26	60.000000	6	479	1	5	0	0	0
1	46	7	30.000000	9	376	0	1	1	1	1
1	47	105	90.000000	4	358	0	1	1	1	1
1	48	80	120.000000	3	479	2	0	0	0	0
1	49	44	120.000000	3	257	0	1	1	1	1
1	50	84	120.000000	3	479	1	2	0	0	0
1	51	98	60.000000	6	479	1	2	0	0	0
1	52	111	30.000000	9	330	0	1	1	1	1
1	53	77	90.000000	4	464	0	1	1	1	1
1	54	39	30.000000	9	187	0	1	1	1	1
1	55	94	60.000000	6	479	2	3	0	0	0
1	56	61	90.000000	4	244	0	1	1	1	1
1	57	24	120.000000	3	180	0	1	1	1	1
1	58	59	30.000000	9	231	0	1	1	1	1
1	59	48	120.000000	3	479	0	1	1	1	1
1	60	49	90.000000	4	372	0	1	1	1	1
1	61	14	60.000000	6	337	0	1	1	1	1
1	62	85	90.000000	4	352	0	1	1	1	1
1	63	1	90.000000	4	479	1	0	0	0	0
1	64	25	90.000000	4	441	0	1	1	1	1
1	65	65	90.000000	4	375	0	1	1	1	1
1	66	58	60.000000	6	479	3	0	0	0	0
1	67	107	30.000000	9	220	0	1	1	1	1
1	68	57	90.000000	4	479	0	1	1	1	1
1	69	10	60.000000	6	479	5	4	0	0	0
1	70	27	30.000000	9	479	8	2	0	0	0
1	71	11	30.000000	9	416	3	8	0	0	0
1	72	92	120.000000	3	342	0	1	1	1	1
1	73	56	120.000000	3	479	0	1	1	1	1
1	74	52	120.000000	3	479	1	0	0	0	0
1	75	47	30.000000	9	479	1	3	0	0	0
1	76	109	90.000000	4	479	0	1	1	1	1
1	77	72	120.000000	3	479	1	0	0	0	0
1	78	38	60.000000	6	363	1	3	0	0	0
1	79	53	90.000000	4	479	0	2	1	0	0
1	80	13	90.000000	4	479	0	1	1	1	1
1	81	69	90.000000	4	479	0	1	1	1	1
1	82	74	60.000000	6	479	0	3	1	0	0
1	83	3	30.000000	9	479	7	8	0	0	0
1	84	51	30.000000	9	331	5	6	0	0	0
1	85	87	30.000000	9	479	6	4	0	0	0
1	86	22	60.000000	6	460	0	1	1	1	1
1	87	116	120.000000	3	479	0	1	1	1	1
1	88	108	120.000000	3	479	0	2	1	0	0
1	89	9	90.000000	4	479	3	0	0	0	0
1	90	113	90.000000	4	308	0	1	1	1	1
1	91	70	60.000000	6	479	5	0	0	0	0
1	92	17	90.000000	4	467	0	1	1	1	1
1	93	55	30.000000	9	276	0	1	1	1	1
1	94	73	90.000000	4	479	2	0	0	0	0
1	95	86	60.000000	6	479	0	5	1	0	0
1	96	82	60.000000	6	479	2	5	0	0	0
1	97	79	30.000000	9	311	0	1	1	1	1
1	98	112	120.000000	3	479	0	1	1	1	1
1	99	106	60.000000	6	345	0	1	1	1	1
1	100	46	60.000000	6	479	0	1	1	1	1
1	101	18	60.000000	6	416	0	1	1	1	1
1	102	83	30.000000	9	331	0	1	1	1	1
1	103	33	90.000000	4	309	0	1	1	1	1
1	104	29	90.000000	4	326	0	1	1	1	1
1	105	54	60.000000	6	225	0	1	1	1	1
1	106	12	120.000000	3	442	0	1	1	1	1
1	107	118	60.000000	6	365	0	1	1	1	1
1	108	93	90.000000	4	474	0	1	1	1	1
1	109	114	60.000000	6	479	0	1	1	1	1
1	110	119	30.000000	9	270	0	1	1	1	1
1	111	43	30.000000	9	419	0	1	1	1	1
1	112	89	90.000000	4	479	3	1	0	1	0
1	113	90	60.000000	6	271	0	1	1	1	1
1	114	28	120.000000	3	479	0	1	1	1	1
1	115	91	30.000000	9	416	0	1	1	1	1
1	116	81	90.000000	4	376	0	1	1	1	1
1	117	102	60.000000	6	479	3	0	0	0	0
1	118	4	120.000000	3	479	0	1	1	1	1
1	119	15	30.000000	9	479	8	0	0	0	0
