subNum	trialNum	fileNum	chasing_subtlety	num_item	frames	selected_wolf	selected_sheep	wolf_acc	sheep_acc	chasing_acc
----------------------------------------------------------
1	0	79	30.000000	9	479	8	2	0	0	0
1	1	74	60.000000	6	479	0	1	1	1	1
1	2	118	60.000000	6	479	0	1	1	1	1
1	3	59	30.000000	9	479	0	1	1	1	1
1	4	91	30.000000	9	479	2	6	0	0	0
1	5	82	60.000000	6	479	3	5	0	0	0
1	6	73	90.000000	4	479	0	3	1	0	0
1	7	12	120.000000	3	479	1	2	0	0	0
1	8	46	60.000000	6	479	0	4	1	0	0
1	9	103	30.000000	9	479	3	8	0	0	0
1	10	24	120.000000	3	479	0	1	1	1	1
1	11	75	30.000000	9	479	3	7	0	0	0
1	12	86	60.000000	6	479	0	1	1	1	1
1	13	55	30.000000	9	479	0	2	1	0	0
1	14	64	120.000000	3	479	2	0	0	0	0
1	15	4	120.000000	3	479	0	1	1	1	1
1	16	5	90.000000	4	479	3	0	0	0	0
1	17	115	30.000000	9	479	3	6	0	0	0
1	18	48	120.000000	3	479	0	1	1	1	1
1	19	56	120.000000	3	479	0	1	1	1	1
1	20	38	60.000000	6	479	1	3	0	0	0
1	21	113	90.000000	4	479	0	1	1	1	1
1	22	1	90.000000	4	479	1	2	0	0	0
1	23	14	60.000000	6	479	0	1	1	1	1
1	24	13	90.000000	4	479	0	1	1	1	1
1	25	60	120.000000	3	479	2	0	0	0	0
1	26	50	60.000000	6	479	3	4	0	0	0
1	27	69	90.000000	4	479	0	1	1	1	1
1	28	32	120.000000	3	479	0	1	1	1	1
1	29	101	90.000000	4	479	0	1	1	1	1
1	30	117	90.000000	4	479	0	3	1	0	0
1	31	94	60.000000	6	479	0	1	1	1	1
1	32	0	120.000000	3	479	0	2	1	0	0
1	33	58	60.000000	6	479	0	1	1	1	1
1	34	92	120.000000	3	479	0	1	1	1	1
1	35	70	60.000000	6	479	0	1	1	1	1
1	36	43	30.000000	9	479	0	1	1	1	1
1	37	19	30.000000	9	479	0	1	1	1	1
1	38	66	60.000000	6	479	3	4	0	0	0
1	39	7	30.000000	9	479	7	1	0	1	0
1	40	83	30.000000	9	479	0	1	1	1	1
1	41	93	90.000000	4	479	1	2	0	0	0
1	42	53	90.000000	4	479	0	2	1	0	0
1	43	45	90.000000	4	479	0	1	1	1	1
1	44	116	120.000000	3	479	0	1	1	1	1
1	45	108	120.000000	3	479	2	1	0	1	0
1	46	33	90.000000	4	479	0	1	1	1	1
1	47	11	30.000000	9	479	0	1	1	1	1
1	48	99	30.000000	9	479	0	1	1	1	1
1	49	29	90.000000	4	479	0	1	1	1	1
1	50	112	120.000000	3	479	0	1	1	1	1
1	51	89	90.000000	4	479	2	0	0	0	0
1	52	3	30.000000	9	479	0	1	1	1	1
1	53	10	60.000000	6	479	0	1	1	1	1
1	54	49	90.000000	4	479	0	1	1	1	1
1	55	62	60.000000	6	479	0	1	1	1	1
1	56	84	120.000000	3	479	2	1	0	1	0
1	57	31	30.000000	9	479	0	1	1	1	1
1	58	65	90.000000	4	479	1	0	0	0	0
1	59	42	60.000000	6	479	0	1	1	1	1
1	60	63	30.000000	9	479	0	1	1	1	1
1	61	68	120.000000	3	479	1	2	0	0	0
1	62	96	120.000000	3	479	0	1	1	1	1
1	63	119	30.000000	9	479	0	1	1	1	1
1	64	15	30.000000	9	479	0	1	1	1	1
1	65	28	120.000000	3	479	1	2	0	0	0
1	66	67	30.000000	9	479	0	1	1	1	1
1	67	30	60.000000	6	479	4	3	0	0	0
1	68	20	120.000000	3	479	0	2	1	0	0
1	69	105	90.000000	4	479	0	1	1	1	1
1	70	104	120.000000	3	479	2	1	0	1	0
1	71	71	30.000000	9	479	0	1	1	1	1
1	72	23	30.000000	9	479	3	1	0	1	0
1	73	18	60.000000	6	479	3	4	0	0	0
1	74	21	90.000000	4	479	0	1	1	1	1
1	75	95	30.000000	9	479	0	1	1	1	1
1	76	97	90.000000	4	479	0	1	1	1	1
1	77	78	60.000000	6	479	3	0	0	0	0
1	78	16	120.000000	3	479	1	0	0	0	0
1	79	40	120.000000	3	479	0	1	1	1	1
1	80	76	120.000000	3	479	0	1	1	1	1
1	81	39	30.000000	9	479	5	7	0	0	0
1	82	102	60.000000	6	479	4	1	0	1	0
1	83	17	90.000000	4	479	0	1	1	1	1
1	84	107	30.000000	9	479	0	1	1	1	1
1	85	36	120.000000	3	479	0	1	1	1	1
1	86	44	120.000000	3	479	0	1	1	1	1
1	87	98	60.000000	6	479	0	1	1	1	1
1	88	77	90.000000	4	479	1	2	0	0	0
1	89	110	60.000000	6	479	0	1	1	1	1
1	90	6	60.000000	6	479	3	2	0	0	0
1	91	25	90.000000	4	479	0	1	1	1	1
1	92	9	90.000000	4	479	0	1	1	1	1
1	93	26	60.000000	6	479	2	0	0	0	0
1	94	35	30.000000	9	479	0	1	1	1	1
1	95	52	120.000000	3	479	0	1	1	1	1
1	96	87	30.000000	9	479	0	4	1	0	0
1	97	90	60.000000	6	479	0	1	1	1	1
1	98	41	90.000000	4	479	0	1	1	1	1
1	99	100	120.000000	3	479	0	2	1	0	0
1	100	57	90.000000	4	479	0	1	1	1	1
1	101	27	30.000000	9	479	8	2	0	0	0
1	102	37	90.000000	4	479	3	1	0	1	0
1	103	8	120.000000	3	479	0	1	1	1	1
1	104	114	60.000000	6	479	0	1	1	1	1
1	105	34	60.000000	6	479	0	1	1	1	1
1	106	51	30.000000	9	479	8	2	0	0	0
1	107	72	120.000000	3	479	2	0	0	0	0
1	108	85	90.000000	4	479	0	1	1	1	1
1	109	47	30.000000	9	479	2	4	0	0	0
1	110	61	90.000000	4	479	0	1	1	1	1
1	111	22	60.000000	6	479	0	5	1	0	0
1	112	109	90.000000	4	479	0	1	1	1	1
1	113	54	60.000000	6	479	0	1	1	1	1
1	114	111	30.000000	9	479	0	1	1	1	1
1	115	80	120.000000	3	479	0	1	1	1	1
1	116	2	60.000000	6	479	4	0	0	0	0
1	117	88	120.000000	3	479	0	2	1	0	0
1	118	81	90.000000	4	479	0	1	1	1	1
1	119	106	60.000000	6	479	0	1	1	1	1
